…
Since Puerto Rico is not a state or Federal District, I do not believe this was an issue. A potential issue with inner join is that it would have dropped any state without an abbreviation listed. However, both datasets had every state abbrevation, so none of the states/DC were dropped. If I wanted to include Puerto Rico, I could have used a different join such as full_join.

3. Wrangling (40 pts)

# Generating three variables using mutate:
data <- data %>% mutate(deaths_per_100k = ((deaths/Population) * 
    1e+05))
data <- data %>% mutate(deaths_percentile = percent_rank(deaths_per_100k))
data <- data %>% mutate(positive_percent = (positive/tested) * 
    100)
# Covid Deaths per 100,000 people arranged from greatest to
# least:
data %>% select(State, deaths_per_100k) %>% arrange(desc(deaths_per_100k))

## # A tibble: 51 x 2
##    State                deaths_per_100k
##    <chr>                          <dbl>
##  1 New Jersey                     181. 
##  2 Massachusetts                  134. 
##  3 New York                       131. 
##  4 Connecticut                    127. 
##  5 Louisiana                      116. 
##  6 Rhode Island                   106. 
##  7 Mississippi                    103. 
##  8 District of Columbia            87.6
##  9 Arizona                         77.3
## 10 Illinois                        71.5
## # … with 41 more rows
…
4. Tidying: Rearranging Wide/Long (8 pts)

# Pivot Longer then Wider
data %>% mutate(unemployment_cat = ifelse(Unemployment > mean(Unemployment), 
    "high_unemployment", "low_unemployment")) %>% group_by(unemployment_cat) %>% 
    summarize_if(is.numeric, c(mean, sd)) %>% pivot_longer(2:53) %>% 
    pivot_wider(names_from = "unemployment_cat") %>% rename(`Variable Descriptive Statistic` = "name", 
    `High Unemployment` = "high_unemployment", `Low Unemployment` = "low_unemployment")

## # A tibble: 52 x 3
##    `Variable Descriptive Statistic` `High Unemployment` `Low Unemployment`
##    <chr>                                          <dbl>              <dbl>
##  1 tested_fn1                               2734325            1625452.   
##  2 positive_fn1                              155435.            139202.   
##  3 deaths_fn1                                  5419.              3016.   
##  4 Population_fn1                           7721589.           5706039.   
##  5 Pop_Density_fn1                              825.               178.   
##  6 Gini_fn1                                       0.476              0.460
##  7 ICU_Beds_fn1                                1693.              1320.   
##  8 Income_fn1                                 52435.             51058.   
##  9 GDP_fn1                                    67950.             57335.   
## 10 Unemployment_fn1                               4.31               3.00 
## # … with 42 more rows
…
